<?xml version="1.0" encoding="UTF-8" standalone="no"?>
<svg
   xmlns:dc="http://purl.org/dc/elements/1.1/"
   xmlns:cc="http://creativecommons.org/ns#"
   xmlns:rdf="http://www.w3.org/1999/02/22-rdf-syntax-ns#"
   xmlns:svg="http://www.w3.org/2000/svg"
   xmlns="http://www.w3.org/2000/svg"
   xmlns:xlink="http://www.w3.org/1999/xlink"
   xmlns:sodipodi="http://sodipodi.sourceforge.net/DTD/sodipodi-0.dtd"
   xmlns:inkscape="http://www.inkscape.org/namespaces/inkscape"
   viewBox="0 0 228.66 39.08"
   version="1.1"
   id="svg32"
   sodipodi:docname="logo.svg"
   inkscape:version="0.92.4 (5da689c313, 2019-01-14)"
   inkscape:export-filename="/opt/lampp/htdocs/projectkp/assets/img/logo.png."
   inkscape:export-xdpi="96"
   inkscape:export-ydpi="96">
  <metadata
     id="metadata38">
    <rdf:RDF>
      <cc:Work
         rdf:about="">
        <dc:format>image/svg+xml</dc:format>
        <dc:type
           rdf:resource="http://purl.org/dc/dcmitype/StillImage" />
      </cc:Work>
    </rdf:RDF>
  </metadata>
  <defs
     id="defs36">
    <linearGradient
       inkscape:collect="always"
       id="linearGradient4560">
      <stop
         style="stop-color:#000000;stop-opacity:1;"
         offset="0"
         id="stop4556" />
      <stop
         style="stop-color:#000000;stop-opacity:0;"
         offset="1"
         id="stop4558" />
    </linearGradient>
    <radialGradient
       inkscape:collect="always"
       xlink:href="#linearGradient4560"
       id="radialGradient4564"
       cx="80.175369"
       cy="24.733259"
       fx="80.175369"
       fy="24.733259"
       r="69.118164"
       gradientTransform="matrix(1,0,0,0.10427587,0,22.154177)"
       gradientUnits="userSpaceOnUse" />
  </defs>
  <sodipodi:namedview
     pagecolor="#ffffff"
     bordercolor="#666666"
     borderopacity="1"
     objecttolerance="10"
     gridtolerance="10"
     guidetolerance="10"
     inkscape:pageopacity="0"
     inkscape:pageshadow="2"
     inkscape:window-width="1366"
     inkscape:window-height="704"
     id="namedview34"
     showgrid="false"
     inkscape:zoom="1.5219102"
     inkscape:cx="25.055298"
     inkscape:cy="14.283449"
     inkscape:window-x="0"
     inkscape:window-y="27"
     inkscape:window-maximized="1"
     inkscape:current-layer="svg32" />
  <style
     id="style2">.cls-1{fill:#fed136;}</style>
  <text
     xml:space="preserve"
     style="font-style:normal;font-weight:normal;font-size:17.33333397px;line-height:1.25;font-family:sans-serif;letter-spacing:0px;word-spacing:0px;fill:#000000;fill-opacity:1;stroke:none"
     x="1.9712069"
     y="2.9412081"
     id="text4550"><tspan
       sodipodi:role="line"
       id="tspan4548"
       x="1.9712069"
       y="18.277145" /></text>
  <text
     xml:space="preserve"
     style="font-style:italic;font-variant:normal;font-weight:500;font-stretch:normal;font-size:32.14937973px;line-height:0.25;font-family:'URW Chancery L';-inkscape-font-specification:'URW Chancery L Medium Italic';letter-spacing:0px;word-spacing:0px;fill:#ffff00;fill-opacity:1;stroke:#ffff00;stroke-width:0.37675053;stroke-linejoin:round;stroke-miterlimit:4;stroke-dasharray:none;stroke-dashoffset:0;stroke-opacity:1"
     x="3.9791946"
     y="27.497595"
     id="text4554"><tspan
       sodipodi:role="line"
       id="tspan4552"
       x="3.9791946"
       y="27.497595"
       style="font-style:italic;font-variant:normal;font-weight:500;font-stretch:normal;font-size:32.14937973px;line-height:0.25;font-family:'URW Chancery L';-inkscape-font-specification:'URW Chancery L Medium Italic';fill:#ffff00;stroke:#ffff00;stroke-width:0.37675053;stroke-linejoin:round;stroke-miterlimit:4;stroke-dasharray:none;stroke-dashoffset:0;stroke-opacity:1">Kelurahan Pulau</tspan><tspan
       sodipodi:role="line"
       x="3.9791946"
       y="35.534939"
       style="font-style:italic;font-variant:normal;font-weight:500;font-stretch:normal;font-size:32.14937973px;line-height:0.25;font-family:'URW Chancery L';-inkscape-font-specification:'URW Chancery L Medium Italic';fill:#ffff00;stroke:#ffff00;stroke-width:0.37675053;stroke-linejoin:round;stroke-miterlimit:4;stroke-dasharray:none;stroke-dashoffset:0;stroke-opacity:1"
       id="tspan822" /></text>
</svg>
